…
c. `tally` does not accept `'type' (character)` arguments. We need to assign a weight (e.g. 1) to each row so it knows how much to numerically weigh each observation.

d. `tally` does not accept `'type' (character)` arguments. This function is not intended to `group_by` two variables and a different function (`count`) is required instead. 

::: solution
d is the correct answer!


``` r
surveys %>% count(genus, species)
```

``` output
# A tibble: 36 × 3
   genus            species             n
   <chr>            <chr>           <int>
 1 Ammospermophilus harrisi           136
 2 Amphispiza       bilineata         223
 3 Baiomys          taylori             3
 4 Calamospiza      melanocorys        13
 5 Callipepla       squamata           16
 6 Campylorhynchus  brunneicapillus    23
 7 Chaetodipus      penicillatus      382
 8 Crotalus         scutalatus          1
 9 Crotalus         viridis             1
10 Dipodomys        merriami         5675
# ℹ 26 more rows
```
…
