…
**Step 1: select the variables of interest**


``` r
# subset rodent into new_rodent to make it minimal
# Note: there are many ways you could do this!
new_surveys <- surveys %>% 
  # 1. select the variables of interest
  select(record_id, sex)
  # PAUSE. Does this work so far?
new_surveys
```

``` output
# A tibble: 16,878 × 2
   record_id sex  
       <dbl> <chr>
 1         1 M    
 2         2 M    
 3         3 F    
 4         4 M    
 5         5 M    
 6         6 M    
 7         7 F    
 8         8 M    
 9         9 F    
10        10 F    
# ℹ 16,868 more rows
```
…
