RRRRR, I’m stuck!: Identify the problem and make a plan
…
   Show me the solution 

d is the correct answer!

R

surveys %>% count(genus, species)

OUTPUT

# A tibble: 36 × 3
   genus            species             n
   <chr>            <chr>           <int>
 1 Ammospermophilus harrisi           136
 2 Amphispiza       bilineata         223
 3 Baiomys          taylori             3
 4 Calamospiza      melanocorys        13
 5 Callipepla       squamata           16
 6 Campylorhynchus  brunneicapillus    23
 7 Chaetodipus      penicillatus      382
 8 Crotalus         scutalatus          1
 9 Crotalus         viridis             1
10 Dipodomys        merriami         5675
# ℹ 26 more rows
…
